@relation trees

@attribute first_tree:tree string
@attribute number numeric
@attribute second_tree:tree string
@attribute target_class numeric

@data
"(ROOT (SBARQ (WHNP (WDT Which)(NN country))(SQ (VP (VBD gave)(NP (NNP New)(NNP York))(NP (NP (DT the)(NNP Statue))(PP (IN of)(NP (NNP Liberty))))))(. ?)))",1,"(WHNP (WP Hi))",3
"(ROOT (SBARQ (WHNP (WP What))(SQ (VP (VBZ is)(NP (NP (DT the)(NN date))(PP (IN of)(NP (NP (NNP Mexico)(POS 's))(NN independence))))))(. ?)))",2,"(WW (WP What))",2
"(ROOT (SBARQ (WHNP (WP What))(SQ (VP (VBZ is)(NP (NP (NNP New)(NNP York)(POS 's))(NN state)(NN bird))))(. ?)))",1,"(N (WP What))",2
"(ROOT (SBARQ (WHNP (WP What))(SQ (VP (VBZ is)(ADJP (JJ e-coli))))(. ?)))",2,"(WHNP (WP What))",4
"(ROOT (SBARQ (WHNP (WP What))(SQ (VP (VBZ is)(NP (NP (DT the)(NNS sales)(NN tax))(PP (IN in)(NP (NNP Minnesota))))))(. ?)))",1,"(WHNP (X What))",1
